[
    {
      "productKey":1,
      "productName": "Cola",
      "productPrice": 2.5
    },
    {
      "productKey":2,
      "productName": "Lemon Juice",
      "productPrice": 2.0
    },
    {
      "productKey":3,
      "productName": "Iced Tea",
      "productPrice": 3.0
    },
    {
      "productKey":4,
      "productName": "Orange Soda",
      "productPrice": 2.8
    },
    {
      "productKey":5,
      "productName": "Grape Juice",
      "productPrice": 2.5
    },
    {
      "productKey":6,
        "productName": "Cold Coffee",
        "productPrice": 3.5
      }
  ]
  